HTTP/1.0 201 Created
Server: BaseHTTP/0.6 Python/3.8.17
Date: Mon, 19 Jun 2023 16:12:24 GMT
Content-Type: application/json
Location: /queues/53616c7465645f5f337117b8af70989dc95886091ea92e2a4fad2bba72540a5197b7620a68a4e5a9c872168ef82a22681ef6e7c1d0258670f05d78ea085f37e5e73410c73c9d566b50b7d71d0efa24ec
